v 36.0000 -118.0000 10.0000
v 32.0000 -100.0000 10.0000
v 29.0000 -102.0000 10.0000
vt 0.0000 0.0000
vt 0.0000 0.0000
vt 0.0000 0.0000
vn 0.0000 0.0000 1.0000
vn 0.0000 0.0000 1.0000
vn 0.0000 0.0000 1.0000
f 1/1/1 2/2/2 3/3/3
v 36.0000 -118.0000 10.0000
v 29.0000 -102.0000 10.0000
v 17.0000 -101.0000 10.0000
vt 0.0000 0.0000
vt 0.0000 0.0000
vt 0.0000 0.0000
vn 0.0000 0.0000 1.0000
vn 0.0000 0.0000 1.0000
vn 0.0000 0.0000 1.0000
f 4/4/4 5/5/5 6/6/6
v 36.0000 -118.0000 10.0000
v 17.0000 -101.0000 10.0000
v 1.0000 -104.0000 10.0000
vt 0.0000 0.0000
vt 0.0000 0.0000
vt 0.0000 0.0000
vn 0.0000 0.0000 1.0000
vn 0.0000 0.0000 1.0000
vn 0.0000 0.0000 1.0000
f 7/7/7 8/8/8 9/9/9
v 36.0000 -118.0000 10.0000
v 1.0000 -104.0000 10.0000
v 1.0000 -108.0000 10.0000
vt 0.0000 0.0000
vt 0.0000 0.0000
vt 0.0000 0.0000
vn 0.0000 0.0000 1.0000
vn 0.0000 0.0000 1.0000
vn 0.0000 0.0000 1.0000
f 10/10/10 11/11/11 12/12/12
v 36.0000 -118.0000 10.0000
v 1.0000 -108.0000 10.0000
v 9.0000 -114.0000 10.0000
vt 0.0000 0.0000
vt 0.0000 0.0000
vt 0.0000 0.0000
vn 0.0000 0.0000 1.0000
vn 0.0000 0.0000 1.0000
vn 0.0000 0.0000 1.0000
f 13/13/13 14/14/14 15/15/15
v 36.0000 -118.0000 10.0000
v 9.0000 -114.0000 10.0000
v 13.0000 -121.0000 10.0000
vt 0.0000 0.0000
vt 0.0000 0.0000
vt 0.0000 0.0000
vn 0.0000 0.0000 1.0000
vn 0.0000 0.0000 1.0000
vn 0.0000 0.0000 1.0000
f 16/16/16 17/17/17 18/18/18
v 36.0000 -118.0000 10.0000
v 13.0000 -121.0000 10.0000
v 18.0000 -127.0000 10.0000
vt 0.0000 0.0000
vt 0.0000 0.0000
vt 0.0000 0.0000
vn 0.0000 0.0000 1.0000
vn 0.0000 0.0000 1.0000
vn 0.0000 0.0000 1.0000
f 19/19/19 20/20/20 21/21/21
v 36.0000 -118.0000 10.0000
v 18.0000 -127.0000 10.0000
v 24.0000 -132.0000 10.0000
vt 0.0000 0.0000
vt 0.0000 0.0000
vt 0.0000 0.0000
vn 0.0000 0.0000 1.0000
vn 0.0000 0.0000 1.0000
vn 0.0000 0.0000 1.0000
f 22/22/22 23/23/23 24/24/24
v 36.0000 -118.0000 10.0000
v 24.0000 -132.0000 10.0000
v 28.0000 -136.0000 10.0000
vt 0.0000 0.0000
vt 0.0000 0.0000
vt 0.0000 0.0000
vn 0.0000 0.0000 1.0000
vn 0.0000 0.0000 1.0000
vn 0.0000 0.0000 1.0000
f 25/25/25 26/26/26 27/27/27
v 36.0000 -118.0000 10.0000
v 28.0000 -136.0000 10.0000
v 33.0000 -140.0000 10.0000
vt 0.0000 0.0000
vt 0.0000 0.0000
vt 0.0000 0.0000
vn 0.0000 0.0000 1.0000
vn 0.0000 0.0000 1.0000
vn 0.0000 0.0000 1.0000
f 28/28/28 29/29/29 30/30/30
v 36.0000 -118.0000 10.0000
v 33.0000 -140.0000 10.0000
v 40.0000 -147.0000 10.0000
vt 0.0000 0.0000
vt 0.0000 0.0000
vt 0.0000 0.0000
vn 0.0000 0.0000 1.0000
vn 0.0000 0.0000 1.0000
vn 0.0000 0.0000 1.0000
f 31/31/31 32/32/32 33/33/33
v 36.0000 -118.0000 10.0000
v 40.0000 -147.0000 10.0000
v 46.0000 -146.0000 10.0000
vt 0.0000 0.0000
vt 0.0000 0.0000
vt 0.0000 0.0000
vn 0.0000 0.0000 1.0000
vn 0.0000 0.0000 1.0000
vn 0.0000 0.0000 1.0000
f 34/34/34 35/35/35 36/36/36
v 36.0000 -118.0000 10.0000
v 46.0000 -146.0000 10.0000
v 54.0000 -142.0000 10.0000
vt 0.0000 0.0000
vt 0.0000 0.0000
vt 0.0000 0.0000
vn 0.0000 0.0000 1.0000
vn 0.0000 0.0000 1.0000
vn 0.0000 0.0000 1.0000
f 37/37/37 38/38/38 39/39/39
v 36.0000 -118.0000 10.0000
v 54.0000 -142.0000 10.0000
v 52.0000 -138.0000 10.0000
vt 0.0000 0.0000
vt 0.0000 0.0000
vt 0.0000 0.0000
vn 0.0000 0.0000 1.0000
vn 0.0000 0.0000 1.0000
vn 0.0000 0.0000 1.0000
f 40/40/40 41/41/41 42/42/42
v 36.0000 -118.0000 10.0000
v 52.0000 -138.0000 10.0000
v 53.0000 -132.0000 10.0000
vt 0.0000 0.0000
vt 0.0000 0.0000
vt 0.0000 0.0000
vn 0.0000 0.0000 1.0000
vn 0.0000 0.0000 1.0000
vn 0.0000 0.0000 1.0000
f 43/43/43 44/44/44 45/45/45
v 36.0000 -118.0000 10.0000
v 53.0000 -132.0000 10.0000
v 57.0000 -129.0000 10.0000
vt 0.0000 0.0000
vt 0.0000 0.0000
vt 0.0000 0.0000
vn 0.0000 0.0000 1.0000
vn 0.0000 0.0000 1.0000
vn 0.0000 0.0000 1.0000
f 46/46/46 47/47/47 48/48/48
v 36.0000 -118.0000 10.0000
v 57.0000 -129.0000 10.0000
v 58.0000 -124.0000 10.0000
vt 0.0000 0.0000
vt 0.0000 0.0000
vt 0.0000 0.0000
vn 0.0000 0.0000 1.0000
vn 0.0000 0.0000 1.0000
vn 0.0000 0.0000 1.0000
f 49/49/49 50/50/50 51/51/51
v 36.0000 -118.0000 10.0000
v 58.0000 -124.0000 10.0000
v 58.0000 -120.0000 10.0000
vt 0.0000 0.0000
vt 0.0000 0.0000
vt 0.0000 0.0000
vn 0.0000 0.0000 1.0000
vn 0.0000 0.0000 1.0000
vn 0.0000 0.0000 1.0000
f 52/52/52 53/53/53 54/54/54
v 36.0000 -118.0000 10.0000
v 58.0000 -120.0000 10.0000
v 59.0000 -117.0000 10.0000
vt 0.0000 0.0000
vt 0.0000 0.0000
vt 0.0000 0.0000
vn 0.0000 0.0000 1.0000
vn 0.0000 0.0000 1.0000
vn 0.0000 0.0000 1.0000
f 55/55/55 56/56/56 57/57/57
v 36.0000 -118.0000 10.0000
v 59.0000 -117.0000 10.0000
v 59.0000 -115.0000 10.0000
vt 0.0000 0.0000
vt 0.0000 0.0000
vt 0.0000 0.0000
vn 0.0000 0.0000 1.0000
vn 0.0000 0.0000 1.0000
vn 0.0000 0.0000 1.0000
f 58/58/58 59/59/59 60/60/60
v 36.0000 -118.0000 10.0000
v 59.0000 -115.0000 10.0000
v 51.0000 -108.0000 10.0000
vt 0.0000 0.0000
vt 0.0000 0.0000
vt 0.0000 0.0000
vn 0.0000 0.0000 1.0000
vn 0.0000 0.0000 1.0000
vn 0.0000 0.0000 1.0000
f 61/61/61 62/62/62 63/63/63
v 36.0000 -118.0000 10.0000
v 51.0000 -108.0000 10.0000
v 47.0000 -104.0000 10.0000
vt 0.0000 0.0000
vt 0.0000 0.0000
vt 0.0000 0.0000
vn 0.0000 0.0000 1.0000
vn 0.0000 0.0000 1.0000
vn 0.0000 0.0000 1.0000
f 64/64/64 65/65/65 66/66/66
v 36.0000 -118.0000 10.0000
v 47.0000 -104.0000 10.0000
v 44.0000 -100.0000 10.0000
vt 0.0000 0.0000
vt 0.0000 0.0000
vt 0.0000 0.0000
vn 0.0000 0.0000 1.0000
vn 0.0000 0.0000 1.0000
vn 0.0000 0.0000 1.0000
f 67/67/67 68/68/68 69/69/69
v 36.0000 -118.0000 10.0000
v 44.0000 -100.0000 10.0000
v 40.0000 -96.0000 10.0000
vt 0.0000 0.0000
vt 0.0000 0.0000
vt 0.0000 0.0000
vn 0.0000 0.0000 1.0000
vn 0.0000 0.0000 1.0000
vn 0.0000 0.0000 1.0000
f 70/70/70 71/71/71 72/72/72
v 36.0000 -118.0000 10.0000
v 40.0000 -96.0000 10.0000
v 37.0000 -91.0000 10.0000
vt 0.0000 0.0000
vt 0.0000 0.0000
vt 0.0000 0.0000
vn 0.0000 0.0000 1.0000
vn 0.0000 0.0000 1.0000
vn 0.0000 0.0000 1.0000
f 73/73/73 74/74/74 75/75/75
v 36.0000 -118.0000 10.0000
v 37.0000 -91.0000 10.0000
v 34.0000 -89.0000 10.0000
vt 0.0000 0.0000
vt 0.0000 0.0000
vt 0.0000 0.0000
vn 0.0000 0.0000 1.0000
vn 0.0000 0.0000 1.0000
vn 0.0000 0.0000 1.0000
f 76/76/76 77/77/77 78/78/78
v 36.0000 -118.0000 10.0000
v 34.0000 -89.0000 10.0000
v 32.0000 -91.0000 10.0000
vt 0.0000 0.0000
vt 0.0000 0.0000
vt 0.0000 0.0000
vn 0.0000 0.0000 1.0000
vn 0.0000 0.0000 1.0000
vn 0.0000 0.0000 1.0000
f 79/79/79 80/80/80 81/81/81
v 36.0000 -118.0000 10.0000
v 32.0000 -91.0000 10.0000
v 32.0000 -96.0000 10.0000
vt 0.0000 0.0000
vt 0.0000 0.0000
vt 0.0000 0.0000
vn 0.0000 0.0000 1.0000
vn 0.0000 0.0000 1.0000
vn 0.0000 0.0000 1.0000
f 82/82/82 83/83/83 84/84/84
v 36.0000 -118.0000 10.0000
v 32.0000 -96.0000 10.0000
v 32.0000 -100.0000 10.0000
vt 0.0000 0.0000
vt 0.0000 0.0000
vt 0.0000 0.0000
vn 0.0000 0.0000 1.0000
vn 0.0000 0.0000 1.0000
vn 0.0000 0.0000 1.0000
f 85/85/85 86/86/86 87/87/87
v 17.0000 -101.0000 10.0000
v 5.0000 -92.0000 10.0000
v 1.0000 -104.0000 10.0000
vt 0.0000 0.0000
vt 0.0000 0.0000
vt 0.0000 0.0000
vn 0.0000 0.0000 1.0000
vn 0.0000 0.0000 1.0000
vn 0.0000 0.0000 1.0000
f 88/88/88 89/89/89 90/90/90
v 1.0000 -104.0000 10.0000
v 5.0000 -92.0000 10.0000
v 1.0000 -92.0000 10.0000
vt 0.0000 0.0000
vt 0.0000 0.0000
vt 0.0000 0.0000
vn 0.0000 0.0000 1.0000
vn 0.0000 0.0000 1.0000
vn 0.0000 0.0000 1.0000
f 91/91/91 92/92/92 93/93/93
v 1.0000 -104.0000 10.0000
v 1.0000 -92.0000 10.0000
v -1.0000 -102.0000 10.0000
vt 0.0000 0.0000
vt 0.0000 0.0000
vt 0.0000 0.0000
vn 0.0000 0.0000 1.0000
vn 0.0000 0.0000 1.0000
vn 0.0000 0.0000 1.0000
f 94/94/94 95/95/95 96/96/96
v 1.0000 -104.0000 10.0000
v -1.0000 -102.0000 10.0000
v 1.0000 -108.0000 10.0000
vt 0.0000 0.0000
vt 0.0000 0.0000
vt 0.0000 0.0000
vn 0.0000 0.0000 1.0000
vn 0.0000 0.0000 1.0000
vn 0.0000 0.0000 1.0000
f 97/97/97 98/98/98 99/99/99
v 54.0000 -142.0000 10.0000
v 46.0000 -146.0000 10.0000
v 66.0000 -152.0000 10.0000
vt 0.0000 0.0000
vt 0.0000 0.0000
vt 0.0000 0.0000
vn 0.0000 0.0000 1.0000
vn 0.0000 0.0000 1.0000
vn 0.0000 0.0000 1.0000
f 100/100/100 101/101/101 102/102/102
v 66.0000 -152.0000 10.0000
v 46.0000 -146.0000 10.0000
v 50.0000 -158.0000 10.0000
vt 0.0000 0.0000
vt 0.0000 0.0000
vt 0.0000 0.0000
vn 0.0000 0.0000 1.0000
vn 0.0000 0.0000 1.0000
vn 0.0000 0.0000 1.0000
f 103/103/103 104/104/104 105/105/105
v 50.0000 -158.0000 10.0000
v 46.0000 -146.0000 10.0000
v 40.0000 -147.0000 10.0000
vt 0.0000 0.0000
vt 0.0000 0.0000
vt 0.0000 0.0000
vn 0.0000 0.0000 1.0000
vn 0.0000 0.0000 1.0000
vn 0.0000 0.0000 1.0000
f 106/106/106 107/107/107 108/108/108
v 66.0000 -152.0000 10.0000
v 50.0000 -158.0000 10.0000
v 61.0000 -161.0000 10.0000
vt 0.0000 0.0000
vt 0.0000 0.0000
vt 0.0000 0.0000
vn 0.0000 0.0000 1.0000
vn 0.0000 0.0000 1.0000
vn 0.0000 0.0000 1.0000
f 109/109/109 110/110/110 111/111/111
v 66.0000 -152.0000 10.0000
v 61.0000 -161.0000 10.0000
v 74.0000 -163.0000 10.0000
vt 0.0000 0.0000
vt 0.0000 0.0000
vt 0.0000 0.0000
vn 0.0000 0.0000 1.0000
vn 0.0000 0.0000 1.0000
vn 0.0000 0.0000 1.0000
f 112/112/112 113/113/113 114/114/114
v 72.0000 -156.0000 10.0000
v 66.0000 -152.0000 10.0000
v 74.0000 -163.0000 10.0000
vt 0.0000 0.0000
vt 0.0000 0.0000
vt 0.0000 0.0000
vn 0.0000 0.0000 1.0000
vn 0.0000 0.0000 1.0000
vn 0.0000 0.0000 1.0000
f 115/115/115 116/116/116 117/117/117
v 71.0000 -151.0000 10.0000
v 66.0000 -152.0000 10.0000
v 72.0000 -156.0000 10.0000
vt 0.0000 0.0000
vt 0.0000 0.0000
vt 0.0000 0.0000
vn 0.0000 0.0000 1.0000
vn 0.0000 0.0000 1.0000
vn 0.0000 0.0000 1.0000
f 118/118/118 119/119/119 120/120/120
v 62.0000 -147.0000 10.0000
v 66.0000 -152.0000 10.0000
v 71.0000 -151.0000 10.0000
vt 0.0000 0.0000
vt 0.0000 0.0000
vt 0.0000 0.0000
vn 0.0000 0.0000 1.0000
vn 0.0000 0.0000 1.0000
vn 0.0000 0.0000 1.0000
f 121/121/121 122/122/122 123/123/123
v 62.0000 -147.0000 10.0000
v 54.0000 -142.0000 10.0000
v 66.0000 -152.0000 10.0000
vt 0.0000 0.0000
vt 0.0000 0.0000
vt 0.0000 0.0000
vn 0.0000 0.0000 1.0000
vn 0.0000 0.0000 1.0000
vn 0.0000 0.0000 1.0000
f 124/124/124 125/125/125 126/126/126
v 29.0000 -102.0000 10.0000
v 24.0000 -96.0000 10.0000
v 17.0000 -101.0000 10.0000
vt 0.0000 0.0000
vt 0.0000 0.0000
vt 0.0000 0.0000
vn 0.0000 0.0000 1.0000
vn 0.0000 0.0000 1.0000
vn 0.0000 0.0000 1.0000
f 127/127/127 128/128/128 129/129/129
v 24.0000 -96.0000 10.0000
v 19.0000 -96.0000 10.0000
v 17.0000 -101.0000 10.0000
vt 0.0000 0.0000
vt 0.0000 0.0000
vt 0.0000 0.0000
vn 0.0000 0.0000 1.0000
vn 0.0000 0.0000 1.0000
vn 0.0000 0.0000 1.0000
f 130/130/130 131/131/131 132/132/132
v 29.0000 -102.0000 0.0000
v 29.0000 -102.0000 10.0000
v 32.0000 -100.0000 10.0000
vt 0.0000 0.0000
vt 0.0000 0.0000
vt 0.0000 0.0000
vn -0.5547 0.8321 0.0000
vn -0.5547 0.8321 0.0000
vn -0.5547 0.8321 0.0000
f 133/133/133 134/134/134 135/135/135
v 32.0000 -100.0000 10.0000
v 32.0000 -100.0000 0.0000
v 29.0000 -102.0000 0.0000
vt 0.0000 0.0000
vt 0.0000 0.0000
vt 0.0000 0.0000
vn -0.5547 0.8321 0.0000
vn -0.5547 0.8321 0.0000
vn -0.5547 0.8321 0.0000
f 136/136/136 137/137/137 138/138/138
v 9.0000 -114.0000 0.0000
v 9.0000 -114.0000 10.0000
v 1.0000 -108.0000 10.0000
vt 0.0000 0.0000
vt 0.0000 0.0000
vt 0.0000 0.0000
vn -0.6000 -0.8000 0.0000
vn -0.6000 -0.8000 0.0000
vn -0.6000 -0.8000 0.0000
f 139/139/139 140/140/140 141/141/141
v 1.0000 -108.0000 10.0000
v 1.0000 -108.0000 0.0000
v 9.0000 -114.0000 0.0000
vt 0.0000 0.0000
vt 0.0000 0.0000
vt 0.0000 0.0000
vn -0.6000 -0.8000 0.0000
vn -0.6000 -0.8000 0.0000
vn -0.6000 -0.8000 0.0000
f 142/142/142 143/143/143 144/144/144
v 13.0000 -121.0000 0.0000
v 13.0000 -121.0000 10.0000
v 9.0000 -114.0000 10.0000
vt 0.0000 0.0000
vt 0.0000 0.0000
vt 0.0000 0.0000
vn -0.8682 -0.4961 0.0000
vn -0.8682 -0.4961 0.0000
vn -0.8682 -0.4961 0.0000
f 145/145/145 146/146/146 147/147/147
v 9.0000 -114.0000 10.0000
v 9.0000 -114.0000 0.0000
v 13.0000 -121.0000 0.0000
vt 0.0000 0.0000
vt 0.0000 0.0000
vt 0.0000 0.0000
vn -0.8682 -0.4961 0.0000
vn -0.8682 -0.4961 0.0000
vn -0.8682 -0.4961 0.0000
f 148/148/148 149/149/149 150/150/150
v 18.0000 -127.0000 0.0000
v 18.0000 -127.0000 10.0000
v 13.0000 -121.0000 10.0000
vt 0.0000 0.0000
vt 0.0000 0.0000
vt 0.0000 0.0000
vn -0.7682 -0.6402 0.0000
vn -0.7682 -0.6402 0.0000
vn -0.7682 -0.6402 0.0000
f 151/151/151 152/152/152 153/153/153
v 13.0000 -121.0000 10.0000
v 13.0000 -121.0000 0.0000
v 18.0000 -127.0000 0.0000
vt 0.0000 0.0000
vt 0.0000 0.0000
vt 0.0000 0.0000
vn -0.7682 -0.6402 0.0000
vn -0.7682 -0.6402 0.0000
vn -0.7682 -0.6402 0.0000
f 154/154/154 155/155/155 156/156/156
v 24.0000 -132.0000 0.0000
v 24.0000 -132.0000 10.0000
v 18.0000 -127.0000 10.0000
vt 0.0000 0.0000
vt 0.0000 0.0000
vt 0.0000 0.0000
vn -0.6402 -0.7682 0.0000
vn -0.6402 -0.7682 0.0000
vn -0.6402 -0.7682 0.0000
f 157/157/157 158/158/158 159/159/159
v 18.0000 -127.0000 10.0000
v 18.0000 -127.0000 0.0000
v 24.0000 -132.0000 0.0000
vt 0.0000 0.0000
vt 0.0000 0.0000
vt 0.0000 0.0000
vn -0.6402 -0.7682 0.0000
vn -0.6402 -0.7682 0.0000
vn -0.6402 -0.7682 0.0000
f 160/160/160 161/161/161 162/162/162
v 28.0000 -136.0000 0.0000
v 28.0000 -136.0000 10.0000
v 24.0000 -132.0000 10.0000
vt 0.0000 0.0000
vt 0.0000 0.0000
vt 0.0000 0.0000
vn -0.7071 -0.7071 0.0000
vn -0.7071 -0.7071 0.0000
vn -0.7071 -0.7071 0.0000
f 163/163/163 164/164/164 165/165/165
v 24.0000 -132.0000 10.0000
v 24.0000 -132.0000 0.0000
v 28.0000 -136.0000 0.0000
vt 0.0000 0.0000
vt 0.0000 0.0000
vt 0.0000 0.0000
vn -0.7071 -0.7071 0.0000
vn -0.7071 -0.7071 0.0000
vn -0.7071 -0.7071 0.0000
f 166/166/166 167/167/167 168/168/168
v 33.0000 -140.0000 0.0000
v 33.0000 -140.0000 10.0000
v 28.0000 -136.0000 10.0000
vt 0.0000 0.0000
vt 0.0000 0.0000
vt 0.0000 0.0000
vn -0.6247 -0.7809 0.0000
vn -0.6247 -0.7809 0.0000
vn -0.6247 -0.7809 0.0000
f 169/169/169 170/170/170 171/171/171
v 28.0000 -136.0000 10.0000
v 28.0000 -136.0000 0.0000
v 33.0000 -140.0000 0.0000
vt 0.0000 0.0000
vt 0.0000 0.0000
vt 0.0000 0.0000
vn -0.6247 -0.7809 0.0000
vn -0.6247 -0.7809 0.0000
vn -0.6247 -0.7809 0.0000
f 172/172/172 173/173/173 174/174/174
v 40.0000 -147.0000 0.0000
v 40.0000 -147.0000 10.0000
v 33.0000 -140.0000 10.0000
vt 0.0000 0.0000
vt 0.0000 0.0000
vt 0.0000 0.0000
vn -0.7071 -0.7071 0.0000
vn -0.7071 -0.7071 0.0000
vn -0.7071 -0.7071 0.0000
f 175/175/175 176/176/176 177/177/177
v 33.0000 -140.0000 10.0000
v 33.0000 -140.0000 0.0000
v 40.0000 -147.0000 0.0000
vt 0.0000 0.0000
vt 0.0000 0.0000
vt 0.0000 0.0000
vn -0.7071 -0.7071 0.0000
vn -0.7071 -0.7071 0.0000
vn -0.7071 -0.7071 0.0000
f 178/178/178 179/179/179 180/180/180
v 52.0000 -138.0000 0.0000
v 52.0000 -138.0000 10.0000
v 54.0000 -142.0000 10.0000
vt 0.0000 0.0000
vt 0.0000 0.0000
vt 0.0000 0.0000
vn 0.8944 0.4472 0.0000
vn 0.8944 0.4472 0.0000
vn 0.8944 0.4472 0.0000
f 181/181/181 182/182/182 183/183/183
v 54.0000 -142.0000 10.0000
v 54.0000 -142.0000 0.0000
v 52.0000 -138.0000 0.0000
vt 0.0000 0.0000
vt 0.0000 0.0000
vt 0.0000 0.0000
vn 0.8944 0.4472 0.0000
vn 0.8944 0.4472 0.0000
vn 0.8944 0.4472 0.0000
f 184/184/184 185/185/185 186/186/186
v 53.0000 -132.0000 0.0000
v 53.0000 -132.0000 10.0000
v 52.0000 -138.0000 10.0000
vt 0.0000 0.0000
vt 0.0000 0.0000
vt 0.0000 0.0000
vn 0.9864 -0.1644 0.0000
vn 0.9864 -0.1644 0.0000
vn 0.9864 -0.1644 0.0000
f 187/187/187 188/188/188 189/189/189
v 52.0000 -138.0000 10.0000
v 52.0000 -138.0000 0.0000
v 53.0000 -132.0000 0.0000
vt 0.0000 0.0000
vt 0.0000 0.0000
vt 0.0000 0.0000
vn 0.9864 -0.1644 0.0000
vn 0.9864 -0.1644 0.0000
vn 0.9864 -0.1644 0.0000
f 190/190/190 191/191/191 192/192/192
v 57.0000 -129.0000 0.0000
v 57.0000 -129.0000 10.0000
v 53.0000 -132.0000 10.0000
vt 0.0000 0.0000
vt 0.0000 0.0000
vt 0.0000 0.0000
vn 0.6000 -0.8000 0.0000
vn 0.6000 -0.8000 0.0000
vn 0.6000 -0.8000 0.0000
f 193/193/193 194/194/194 195/195/195
v 53.0000 -132.0000 10.0000
v 53.0000 -132.0000 0.0000
v 57.0000 -129.0000 0.0000
vt 0.0000 0.0000
vt 0.0000 0.0000
vt 0.0000 0.0000
vn 0.6000 -0.8000 0.0000
vn 0.6000 -0.8000 0.0000
vn 0.6000 -0.8000 0.0000
f 196/196/196 197/197/197 198/198/198
v 58.0000 -124.0000 0.0000
v 58.0000 -124.0000 10.0000
v 57.0000 -129.0000 10.0000
vt 0.0000 0.0000
vt 0.0000 0.0000
vt 0.0000 0.0000
vn 0.9806 -0.1961 0.0000
vn 0.9806 -0.1961 0.0000
vn 0.9806 -0.1961 0.0000
f 199/199/199 200/200/200 201/201/201
v 57.0000 -129.0000 10.0000
v 57.0000 -129.0000 0.0000
v 58.0000 -124.0000 0.0000
vt 0.0000 0.0000
vt 0.0000 0.0000
vt 0.0000 0.0000
vn 0.9806 -0.1961 0.0000
vn 0.9806 -0.1961 0.0000
vn 0.9806 -0.1961 0.0000
f 202/202/202 203/203/203 204/204/204
v 58.0000 -120.0000 0.0000
v 58.0000 -120.0000 10.0000
v 58.0000 -124.0000 10.0000
vt 0.0000 0.0000
vt 0.0000 0.0000
vt 0.0000 0.0000
vn 1.0000 0.0000 0.0000
vn 1.0000 0.0000 0.0000
vn 1.0000 0.0000 0.0000
f 205/205/205 206/206/206 207/207/207
v 58.0000 -124.0000 10.0000
v 58.0000 -124.0000 0.0000
v 58.0000 -120.0000 0.0000
vt 0.0000 0.0000
vt 0.0000 0.0000
vt 0.0000 0.0000
vn 1.0000 0.0000 0.0000
vn 1.0000 0.0000 0.0000
vn 1.0000 0.0000 0.0000
f 208/208/208 209/209/209 210/210/210
v 59.0000 -117.0000 0.0000
v 59.0000 -117.0000 10.0000
v 58.0000 -120.0000 10.0000
vt 0.0000 0.0000
vt 0.0000 0.0000
vt 0.0000 0.0000
vn 0.9487 -0.3162 0.0000
vn 0.9487 -0.3162 0.0000
vn 0.9487 -0.3162 0.0000
f 211/211/211 212/212/212 213/213/213
v 58.0000 -120.0000 10.0000
v 58.0000 -120.0000 0.0000
v 59.0000 -117.0000 0.0000
vt 0.0000 0.0000
vt 0.0000 0.0000
vt 0.0000 0.0000
vn 0.9487 -0.3162 0.0000
vn 0.9487 -0.3162 0.0000
vn 0.9487 -0.3162 0.0000
f 214/214/214 215/215/215 216/216/216
v 59.0000 -115.0000 0.0000
v 59.0000 -115.0000 10.0000
v 59.0000 -117.0000 10.0000
vt 0.0000 0.0000
vt 0.0000 0.0000
vt 0.0000 0.0000
vn 1.0000 0.0000 0.0000
vn 1.0000 0.0000 0.0000
vn 1.0000 0.0000 0.0000
f 217/217/217 218/218/218 219/219/219
v 59.0000 -117.0000 10.0000
v 59.0000 -117.0000 0.0000
v 59.0000 -115.0000 0.0000
vt 0.0000 0.0000
vt 0.0000 0.0000
vt 0.0000 0.0000
vn 1.0000 0.0000 0.0000
vn 1.0000 0.0000 0.0000
vn 1.0000 0.0000 0.0000
f 220/220/220 221/221/221 222/222/222
v 51.0000 -108.0000 0.0000
v 51.0000 -108.0000 10.0000
v 59.0000 -115.0000 10.0000
vt 0.0000 0.0000
vt 0.0000 0.0000
vt 0.0000 0.0000
vn 0.6585 0.7526 0.0000
vn 0.6585 0.7526 0.0000
vn 0.6585 0.7526 0.0000
f 223/223/223 224/224/224 225/225/225
v 59.0000 -115.0000 10.0000
v 59.0000 -115.0000 0.0000
v 51.0000 -108.0000 0.0000
vt 0.0000 0.0000
vt 0.0000 0.0000
vt 0.0000 0.0000
vn 0.6585 0.7526 0.0000
vn 0.6585 0.7526 0.0000
vn 0.6585 0.7526 0.0000
f 226/226/226 227/227/227 228/228/228
v 47.0000 -104.0000 0.0000
v 47.0000 -104.0000 10.0000
v 51.0000 -108.0000 10.0000
vt 0.0000 0.0000
vt 0.0000 0.0000
vt 0.0000 0.0000
vn 0.7071 0.7071 0.0000
vn 0.7071 0.7071 0.0000
vn 0.7071 0.7071 0.0000
f 229/229/229 230/230/230 231/231/231
v 51.0000 -108.0000 10.0000
v 51.0000 -108.0000 0.0000
v 47.0000 -104.0000 0.0000
vt 0.0000 0.0000
vt 0.0000 0.0000
vt 0.0000 0.0000
vn 0.7071 0.7071 0.0000
vn 0.7071 0.7071 0.0000
vn 0.7071 0.7071 0.0000
f 232/232/232 233/233/233 234/234/234
v 44.0000 -100.0000 0.0000
v 44.0000 -100.0000 10.0000
v 47.0000 -104.0000 10.0000
vt 0.0000 0.0000
vt 0.0000 0.0000
vt 0.0000 0.0000
vn 0.8000 0.6000 0.0000
vn 0.8000 0.6000 0.0000
vn 0.8000 0.6000 0.0000
f 235/235/235 236/236/236 237/237/237
v 47.0000 -104.0000 10.0000
v 47.0000 -104.0000 0.0000
v 44.0000 -100.0000 0.0000
vt 0.0000 0.0000
vt 0.0000 0.0000
vt 0.0000 0.0000
vn 0.8000 0.6000 0.0000
vn 0.8000 0.6000 0.0000
vn 0.8000 0.6000 0.0000
f 238/238/238 239/239/239 240/240/240
v 40.0000 -96.0000 0.0000
v 40.0000 -96.0000 10.0000
v 44.0000 -100.0000 10.0000
vt 0.0000 0.0000
vt 0.0000 0.0000
vt 0.0000 0.0000
vn 0.7071 0.7071 0.0000
vn 0.7071 0.7071 0.0000
vn 0.7071 0.7071 0.0000
f 241/241/241 242/242/242 243/243/243
v 44.0000 -100.0000 10.0000
v 44.0000 -100.0000 0.0000
v 40.0000 -96.0000 0.0000
vt 0.0000 0.0000
vt 0.0000 0.0000
vt 0.0000 0.0000
vn 0.7071 0.7071 0.0000
vn 0.7071 0.7071 0.0000
vn 0.7071 0.7071 0.0000
f 244/244/244 245/245/245 246/246/246
v 37.0000 -91.0000 0.0000
v 37.0000 -91.0000 10.0000
v 40.0000 -96.0000 10.0000
vt 0.0000 0.0000
vt 0.0000 0.0000
vt 0.0000 0.0000
vn 0.8575 0.5145 0.0000
vn 0.8575 0.5145 0.0000
vn 0.8575 0.5145 0.0000
f 247/247/247 248/248/248 249/249/249
v 40.0000 -96.0000 10.0000
v 40.0000 -96.0000 0.0000
v 37.0000 -91.0000 0.0000
vt 0.0000 0.0000
vt 0.0000 0.0000
vt 0.0000 0.0000
vn 0.8575 0.5145 0.0000
vn 0.8575 0.5145 0.0000
vn 0.8575 0.5145 0.0000
f 250/250/250 251/251/251 252/252/252
v 34.0000 -89.0000 0.0000
v 34.0000 -89.0000 10.0000
v 37.0000 -91.0000 10.0000
vt 0.0000 0.0000
vt 0.0000 0.0000
vt 0.0000 0.0000
vn 0.5547 0.8321 0.0000
vn 0.5547 0.8321 0.0000
vn 0.5547 0.8321 0.0000
f 253/253/253 254/254/254 255/255/255
v 37.0000 -91.0000 10.0000
v 37.0000 -91.0000 0.0000
v 34.0000 -89.0000 0.0000
vt 0.0000 0.0000
vt 0.0000 0.0000
vt 0.0000 0.0000
vn 0.5547 0.8321 0.0000
vn 0.5547 0.8321 0.0000
vn 0.5547 0.8321 0.0000
f 256/256/256 257/257/257 258/258/258
v 32.0000 -91.0000 0.0000
v 32.0000 -91.0000 10.0000
v 34.0000 -89.0000 10.0000
vt 0.0000 0.0000
vt 0.0000 0.0000
vt 0.0000 0.0000
vn -0.7071 0.7071 0.0000
vn -0.7071 0.7071 0.0000
vn -0.7071 0.7071 0.0000
f 259/259/259 260/260/260 261/261/261
v 34.0000 -89.0000 10.0000
v 34.0000 -89.0000 0.0000
v 32.0000 -91.0000 0.0000
vt 0.0000 0.0000
vt 0.0000 0.0000
vt 0.0000 0.0000
vn -0.7071 0.7071 0.0000
vn -0.7071 0.7071 0.0000
vn -0.7071 0.7071 0.0000
f 262/262/262 263/263/263 264/264/264
v 32.0000 -96.0000 0.0000
v 32.0000 -96.0000 10.0000
v 32.0000 -91.0000 10.0000
vt 0.0000 0.0000
vt 0.0000 0.0000
vt 0.0000 0.0000
vn -1.0000 0.0000 0.0000
vn -1.0000 0.0000 0.0000
vn -1.0000 0.0000 0.0000
f 265/265/265 266/266/266 267/267/267
v 32.0000 -91.0000 10.0000
v 32.0000 -91.0000 0.0000
v 32.0000 -96.0000 0.0000
vt 0.0000 0.0000
vt 0.0000 0.0000
vt 0.0000 0.0000
vn -1.0000 0.0000 0.0000
vn -1.0000 0.0000 0.0000
vn -1.0000 0.0000 0.0000
f 268/268/268 269/269/269 270/270/270
v 32.0000 -100.0000 0.0000
v 32.0000 -100.0000 10.0000
v 32.0000 -96.0000 10.0000
vt 0.0000 0.0000
vt 0.0000 0.0000
vt 0.0000 0.0000
vn -1.0000 0.0000 0.0000
vn -1.0000 0.0000 0.0000
vn -1.0000 0.0000 0.0000
f 271/271/271 272/272/272 273/273/273
v 32.0000 -96.0000 10.0000
v 32.0000 -96.0000 0.0000
v 32.0000 -100.0000 0.0000
vt 0.0000 0.0000
vt 0.0000 0.0000
vt 0.0000 0.0000
vn -1.0000 0.0000 0.0000
vn -1.0000 0.0000 0.0000
vn -1.0000 0.0000 0.0000
f 274/274/274 275/275/275 276/276/276
v 5.0000 -92.0000 0.0000
v 5.0000 -92.0000 10.0000
v 17.0000 -101.0000 10.0000
vt 0.0000 0.0000
vt 0.0000 0.0000
vt 0.0000 0.0000
vn 0.6000 0.8000 0.0000
vn 0.6000 0.8000 0.0000
vn 0.6000 0.8000 0.0000
f 277/277/277 278/278/278 279/279/279
v 17.0000 -101.0000 10.0000
v 17.0000 -101.0000 0.0000
v 5.0000 -92.0000 0.0000
vt 0.0000 0.0000
vt 0.0000 0.0000
vt 0.0000 0.0000
vn 0.6000 0.8000 0.0000
vn 0.6000 0.8000 0.0000
vn 0.6000 0.8000 0.0000
f 280/280/280 281/281/281 282/282/282
v 1.0000 -92.0000 0.0000
v 1.0000 -92.0000 10.0000
v 5.0000 -92.0000 10.0000
vt 0.0000 0.0000
vt 0.0000 0.0000
vt 0.0000 0.0000
vn 0.0000 1.0000 0.0000
vn 0.0000 1.0000 0.0000
vn 0.0000 1.0000 0.0000
f 283/283/283 284/284/284 285/285/285
v 5.0000 -92.0000 10.0000
v 5.0000 -92.0000 0.0000
v 1.0000 -92.0000 0.0000
vt 0.0000 0.0000
vt 0.0000 0.0000
vt 0.0000 0.0000
vn 0.0000 1.0000 0.0000
vn 0.0000 1.0000 0.0000
vn 0.0000 1.0000 0.0000
f 286/286/286 287/287/287 288/288/288
v -1.0000 -102.0000 0.0000
v -1.0000 -102.0000 10.0000
v 1.0000 -92.0000 10.0000
vt 0.0000 0.0000
vt 0.0000 0.0000
vt 0.0000 0.0000
vn -0.9806 0.1961 0.0000
vn -0.9806 0.1961 0.0000
vn -0.9806 0.1961 0.0000
f 289/289/289 290/290/290 291/291/291
v 1.0000 -92.0000 10.0000
v 1.0000 -92.0000 0.0000
v -1.0000 -102.0000 0.0000
vt 0.0000 0.0000
vt 0.0000 0.0000
vt 0.0000 0.0000
vn -0.9806 0.1961 0.0000
vn -0.9806 0.1961 0.0000
vn -0.9806 0.1961 0.0000
f 292/292/292 293/293/293 294/294/294
v 1.0000 -108.0000 0.0000
v 1.0000 -108.0000 10.0000
v -1.0000 -102.0000 10.0000
vt 0.0000 0.0000
vt 0.0000 0.0000
vt 0.0000 0.0000
vn -0.9487 -0.3162 0.0000
vn -0.9487 -0.3162 0.0000
vn -0.9487 -0.3162 0.0000
f 295/295/295 296/296/296 297/297/297
v -1.0000 -102.0000 10.0000
v -1.0000 -102.0000 0.0000
v 1.0000 -108.0000 0.0000
vt 0.0000 0.0000
vt 0.0000 0.0000
vt 0.0000 0.0000
vn -0.9487 -0.3162 0.0000
vn -0.9487 -0.3162 0.0000
vn -0.9487 -0.3162 0.0000
f 298/298/298 299/299/299 300/300/300
v 50.0000 -158.0000 0.0000
v 50.0000 -158.0000 10.0000
v 40.0000 -147.0000 10.0000
vt 0.0000 0.0000
vt 0.0000 0.0000
vt 0.0000 0.0000
vn -0.7399 -0.6727 0.0000
vn -0.7399 -0.6727 0.0000
vn -0.7399 -0.6727 0.0000
f 301/301/301 302/302/302 303/303/303
v 40.0000 -147.0000 10.0000
v 40.0000 -147.0000 0.0000
v 50.0000 -158.0000 0.0000
vt 0.0000 0.0000
vt 0.0000 0.0000
vt 0.0000 0.0000
vn -0.7399 -0.6727 0.0000
vn -0.7399 -0.6727 0.0000
vn -0.7399 -0.6727 0.0000
f 304/304/304 305/305/305 306/306/306
v 61.0000 -161.0000 0.0000
v 61.0000 -161.0000 10.0000
v 50.0000 -158.0000 10.0000
vt 0.0000 0.0000
vt 0.0000 0.0000
vt 0.0000 0.0000
vn -0.2631 -0.9648 0.0000
vn -0.2631 -0.9648 0.0000
vn -0.2631 -0.9648 0.0000
f 307/307/307 308/308/308 309/309/309
v 50.0000 -158.0000 10.0000
v 50.0000 -158.0000 0.0000
v 61.0000 -161.0000 0.0000
vt 0.0000 0.0000
vt 0.0000 0.0000
vt 0.0000 0.0000
vn -0.2631 -0.9648 0.0000
vn -0.2631 -0.9648 0.0000
vn -0.2631 -0.9648 0.0000
f 310/310/310 311/311/311 312/312/312
v 74.0000 -163.0000 0.0000
v 74.0000 -163.0000 10.0000
v 61.0000 -161.0000 10.0000
vt 0.0000 0.0000
vt 0.0000 0.0000
vt 0.0000 0.0000
vn -0.1521 -0.9884 0.0000
vn -0.1521 -0.9884 0.0000
vn -0.1521 -0.9884 0.0000
f 313/313/313 314/314/314 315/315/315
v 61.0000 -161.0000 10.0000
v 61.0000 -161.0000 0.0000
v 74.0000 -163.0000 0.0000
vt 0.0000 0.0000
vt 0.0000 0.0000
vt 0.0000 0.0000
vn -0.1521 -0.9884 0.0000
vn -0.1521 -0.9884 0.0000
vn -0.1521 -0.9884 0.0000
f 316/316/316 317/317/317 318/318/318
v 72.0000 -156.0000 0.0000
v 72.0000 -156.0000 10.0000
v 74.0000 -163.0000 10.0000
vt 0.0000 0.0000
vt 0.0000 0.0000
vt 0.0000 0.0000
vn 0.9615 0.2747 0.0000
vn 0.9615 0.2747 0.0000
vn 0.9615 0.2747 0.0000
f 319/319/319 320/320/320 321/321/321
v 74.0000 -163.0000 10.0000
v 74.0000 -163.0000 0.0000
v 72.0000 -156.0000 0.0000
vt 0.0000 0.0000
vt 0.0000 0.0000
vt 0.0000 0.0000
vn 0.9615 0.2747 0.0000
vn 0.9615 0.2747 0.0000
vn 0.9615 0.2747 0.0000
f 322/322/322 323/323/323 324/324/324
v 71.0000 -151.0000 0.0000
v 71.0000 -151.0000 10.0000
v 72.0000 -156.0000 10.0000
vt 0.0000 0.0000
vt 0.0000 0.0000
vt 0.0000 0.0000
vn 0.9806 0.1961 0.0000
vn 0.9806 0.1961 0.0000
vn 0.9806 0.1961 0.0000
f 325/325/325 326/326/326 327/327/327
v 72.0000 -156.0000 10.0000
v 72.0000 -156.0000 0.0000
v 71.0000 -151.0000 0.0000
vt 0.0000 0.0000
vt 0.0000 0.0000
vt 0.0000 0.0000
vn 0.9806 0.1961 0.0000
vn 0.9806 0.1961 0.0000
vn 0.9806 0.1961 0.0000
f 328/328/328 329/329/329 330/330/330
v 62.0000 -147.0000 0.0000
v 62.0000 -147.0000 10.0000
v 71.0000 -151.0000 10.0000
vt 0.0000 0.0000
vt 0.0000 0.0000
vt 0.0000 0.0000
vn 0.4061 0.9138 0.0000
vn 0.4061 0.9138 0.0000
vn 0.4061 0.9138 0.0000
f 331/331/331 332/332/332 333/333/333
v 71.0000 -151.0000 10.0000
v 71.0000 -151.0000 0.0000
v 62.0000 -147.0000 0.0000
vt 0.0000 0.0000
vt 0.0000 0.0000
vt 0.0000 0.0000
vn 0.4061 0.9138 0.0000
vn 0.4061 0.9138 0.0000
vn 0.4061 0.9138 0.0000
f 334/334/334 335/335/335 336/336/336
v 54.0000 -142.0000 0.0000
v 54.0000 -142.0000 10.0000
v 62.0000 -147.0000 10.0000
vt 0.0000 0.0000
vt 0.0000 0.0000
vt 0.0000 0.0000
vn 0.5300 0.8480 0.0000
vn 0.5300 0.8480 0.0000
vn 0.5300 0.8480 0.0000
f 337/337/337 338/338/338 339/339/339
v 62.0000 -147.0000 10.0000
v 62.0000 -147.0000 0.0000
v 54.0000 -142.0000 0.0000
vt 0.0000 0.0000
vt 0.0000 0.0000
vt 0.0000 0.0000
vn 0.5300 0.8480 0.0000
vn 0.5300 0.8480 0.0000
vn 0.5300 0.8480 0.0000
f 340/340/340 341/341/341 342/342/342
v 24.0000 -96.0000 0.0000
v 24.0000 -96.0000 10.0000
v 29.0000 -102.0000 10.0000
vt 0.0000 0.0000
vt 0.0000 0.0000
vt 0.0000 0.0000
vn 0.7682 0.6402 0.0000
vn 0.7682 0.6402 0.0000
vn 0.7682 0.6402 0.0000
f 343/343/343 344/344/344 345/345/345
v 29.0000 -102.0000 10.0000
v 29.0000 -102.0000 0.0000
v 24.0000 -96.0000 0.0000
vt 0.0000 0.0000
vt 0.0000 0.0000
vt 0.0000 0.0000
vn 0.7682 0.6402 0.0000
vn 0.7682 0.6402 0.0000
vn 0.7682 0.6402 0.0000
f 346/346/346 347/347/347 348/348/348
v 19.0000 -96.0000 0.0000
v 19.0000 -96.0000 10.0000
v 24.0000 -96.0000 10.0000
vt 0.0000 0.0000
vt 0.0000 0.0000
vt 0.0000 0.0000
vn 0.0000 1.0000 0.0000
vn 0.0000 1.0000 0.0000
vn 0.0000 1.0000 0.0000
f 349/349/349 350/350/350 351/351/351
v 24.0000 -96.0000 10.0000
v 24.0000 -96.0000 0.0000
v 19.0000 -96.0000 0.0000
vt 0.0000 0.0000
vt 0.0000 0.0000
vt 0.0000 0.0000
vn 0.0000 1.0000 0.0000
vn 0.0000 1.0000 0.0000
vn 0.0000 1.0000 0.0000
f 352/352/352 353/353/353 354/354/354
v 17.0000 -101.0000 0.0000
v 17.0000 -101.0000 10.0000
v 19.0000 -96.0000 10.0000
vt 0.0000 0.0000
vt 0.0000 0.0000
vt 0.0000 0.0000
vn -0.9285 0.3714 0.0000
vn -0.9285 0.3714 0.0000
vn -0.9285 0.3714 0.0000
f 355/355/355 356/356/356 357/357/357
v 19.0000 -96.0000 10.0000
v 19.0000 -96.0000 0.0000
v 17.0000 -101.0000 0.0000
vt 0.0000 0.0000
vt 0.0000 0.0000
vt 0.0000 0.0000
vn -0.9285 0.3714 0.0000
vn -0.9285 0.3714 0.0000
vn -0.9285 0.3714 0.0000
f 358/358/358 359/359/359 360/360/360
