v 203.0000 -2.0000 10.0000
v 227.0000 16.0000 10.0000
v 215.0000 17.0000 10.0000
vt 0.0000 0.0000
vt 0.0000 0.0000
vt 0.0000 0.0000
vn 0.0000 0.0000 1.0000
vn 0.0000 0.0000 1.0000
vn 0.0000 0.0000 1.0000
f 1/1/1 2/2/2 3/3/3
v 203.0000 -2.0000 10.0000
v 215.0000 17.0000 10.0000
v 197.0000 16.0000 10.0000
vt 0.0000 0.0000
vt 0.0000 0.0000
vt 0.0000 0.0000
vn 0.0000 0.0000 1.0000
vn 0.0000 0.0000 1.0000
vn 0.0000 0.0000 1.0000
f 4/4/4 5/5/5 6/6/6
v 203.0000 -2.0000 10.0000
v 197.0000 16.0000 10.0000
v 180.0000 17.0000 10.0000
vt 0.0000 0.0000
vt 0.0000 0.0000
vt 0.0000 0.0000
vn 0.0000 0.0000 1.0000
vn 0.0000 0.0000 1.0000
vn 0.0000 0.0000 1.0000
f 7/7/7 8/8/8 9/9/9
v 203.0000 -2.0000 10.0000
v 180.0000 17.0000 10.0000
v 166.0000 19.0000 10.0000
vt 0.0000 0.0000
vt 0.0000 0.0000
vt 0.0000 0.0000
vn 0.0000 0.0000 1.0000
vn 0.0000 0.0000 1.0000
vn 0.0000 0.0000 1.0000
f 10/10/10 11/11/11 12/12/12
v 203.0000 -2.0000 10.0000
v 166.0000 19.0000 10.0000
v 166.0000 13.0000 10.0000
vt 0.0000 0.0000
vt 0.0000 0.0000
vt 0.0000 0.0000
vn 0.0000 0.0000 1.0000
vn 0.0000 0.0000 1.0000
vn 0.0000 0.0000 1.0000
f 13/13/13 14/14/14 15/15/15
v 203.0000 -2.0000 10.0000
v 166.0000 13.0000 10.0000
v 167.0000 6.0000 10.0000
vt 0.0000 0.0000
vt 0.0000 0.0000
vt 0.0000 0.0000
vn 0.0000 0.0000 1.0000
vn 0.0000 0.0000 1.0000
vn 0.0000 0.0000 1.0000
f 16/16/16 17/17/17 18/18/18
v 203.0000 -2.0000 10.0000
v 167.0000 6.0000 10.0000
v 163.0000 1.0000 10.0000
vt 0.0000 0.0000
vt 0.0000 0.0000
vt 0.0000 0.0000
vn 0.0000 0.0000 1.0000
vn 0.0000 0.0000 1.0000
vn 0.0000 0.0000 1.0000
f 19/19/19 20/20/20 21/21/21
v 203.0000 -2.0000 10.0000
v 163.0000 1.0000 10.0000
v 172.0000 -10.0000 10.0000
vt 0.0000 0.0000
vt 0.0000 0.0000
vt 0.0000 0.0000
vn 0.0000 0.0000 1.0000
vn 0.0000 0.0000 1.0000
vn 0.0000 0.0000 1.0000
f 22/22/22 23/23/23 24/24/24
v 203.0000 -2.0000 10.0000
v 172.0000 -10.0000 10.0000
v 179.0000 -16.0000 10.0000
vt 0.0000 0.0000
vt 0.0000 0.0000
vt 0.0000 0.0000
vn 0.0000 0.0000 1.0000
vn 0.0000 0.0000 1.0000
vn 0.0000 0.0000 1.0000
f 25/25/25 26/26/26 27/27/27
v 203.0000 -2.0000 10.0000
v 179.0000 -16.0000 10.0000
v 191.0000 -19.0000 10.0000
vt 0.0000 0.0000
vt 0.0000 0.0000
vt 0.0000 0.0000
vn 0.0000 0.0000 1.0000
vn 0.0000 0.0000 1.0000
vn 0.0000 0.0000 1.0000
f 28/28/28 29/29/29 30/30/30
v 203.0000 -2.0000 10.0000
v 191.0000 -19.0000 10.0000
v 205.0000 -21.0000 10.0000
vt 0.0000 0.0000
vt 0.0000 0.0000
vt 0.0000 0.0000
vn 0.0000 0.0000 1.0000
vn 0.0000 0.0000 1.0000
vn 0.0000 0.0000 1.0000
f 31/31/31 32/32/32 33/33/33
v 203.0000 -2.0000 10.0000
v 205.0000 -21.0000 10.0000
v 208.0000 -23.0000 10.0000
vt 0.0000 0.0000
vt 0.0000 0.0000
vt 0.0000 0.0000
vn 0.0000 0.0000 1.0000
vn 0.0000 0.0000 1.0000
vn 0.0000 0.0000 1.0000
f 34/34/34 35/35/35 36/36/36
v 203.0000 -2.0000 10.0000
v 208.0000 -23.0000 10.0000
v 215.0000 -32.0000 10.0000
vt 0.0000 0.0000
vt 0.0000 0.0000
vt 0.0000 0.0000
vn 0.0000 0.0000 1.0000
vn 0.0000 0.0000 1.0000
vn 0.0000 0.0000 1.0000
f 37/37/37 38/38/38 39/39/39
v 203.0000 -2.0000 10.0000
v 215.0000 -32.0000 10.0000
v 222.0000 -32.0000 10.0000
vt 0.0000 0.0000
vt 0.0000 0.0000
vt 0.0000 0.0000
vn 0.0000 0.0000 1.0000
vn 0.0000 0.0000 1.0000
vn 0.0000 0.0000 1.0000
f 40/40/40 41/41/41 42/42/42
v 203.0000 -2.0000 10.0000
v 222.0000 -32.0000 10.0000
v 229.0000 -7.0000 10.0000
vt 0.0000 0.0000
vt 0.0000 0.0000
vt 0.0000 0.0000
vn 0.0000 0.0000 1.0000
vn 0.0000 0.0000 1.0000
vn 0.0000 0.0000 1.0000
f 43/43/43 44/44/44 45/45/45
v 203.0000 -2.0000 10.0000
v 229.0000 -7.0000 10.0000
v 230.0000 0.0000 10.0000
vt 0.0000 0.0000
vt 0.0000 0.0000
vt 0.0000 0.0000
vn 0.0000 0.0000 1.0000
vn 0.0000 0.0000 1.0000
vn 0.0000 0.0000 1.0000
f 46/46/46 47/47/47 48/48/48
v 203.0000 -2.0000 10.0000
v 230.0000 0.0000 10.0000
v 229.0000 3.0000 10.0000
vt 0.0000 0.0000
vt 0.0000 0.0000
vt 0.0000 0.0000
vn 0.0000 0.0000 1.0000
vn 0.0000 0.0000 1.0000
vn 0.0000 0.0000 1.0000
f 49/49/49 50/50/50 51/51/51
v 203.0000 -2.0000 10.0000
v 229.0000 3.0000 10.0000
v 226.0000 5.0000 10.0000
vt 0.0000 0.0000
vt 0.0000 0.0000
vt 0.0000 0.0000
vn 0.0000 0.0000 1.0000
vn 0.0000 0.0000 1.0000
vn 0.0000 0.0000 1.0000
f 52/52/52 53/53/53 54/54/54
v 203.0000 -2.0000 10.0000
v 226.0000 5.0000 10.0000
v 225.0000 11.0000 10.0000
vt 0.0000 0.0000
vt 0.0000 0.0000
vt 0.0000 0.0000
vn 0.0000 0.0000 1.0000
vn 0.0000 0.0000 1.0000
vn 0.0000 0.0000 1.0000
f 55/55/55 56/56/56 57/57/57
v 203.0000 -2.0000 10.0000
v 225.0000 11.0000 10.0000
v 227.0000 16.0000 10.0000
vt 0.0000 0.0000
vt 0.0000 0.0000
vt 0.0000 0.0000
vn 0.0000 0.0000 1.0000
vn 0.0000 0.0000 1.0000
vn 0.0000 0.0000 1.0000
f 58/58/58 59/59/59 60/60/60
v 215.0000 -32.0000 10.0000
v 208.0000 -23.0000 10.0000
v 210.0000 -32.0000 10.0000
vt 0.0000 0.0000
vt 0.0000 0.0000
vt 0.0000 0.0000
vn 0.0000 0.0000 1.0000
vn 0.0000 0.0000 1.0000
vn 0.0000 0.0000 1.0000
f 61/61/61 62/62/62 63/63/63
v 215.0000 17.0000 0.0000
v 215.0000 17.0000 10.0000
v 227.0000 16.0000 10.0000
vt 0.0000 0.0000
vt 0.0000 0.0000
vt 0.0000 0.0000
vn 0.0830 0.9965 0.0000
vn 0.0830 0.9965 0.0000
vn 0.0830 0.9965 0.0000
f 64/64/64 65/65/65 66/66/66
v 227.0000 16.0000 10.0000
v 227.0000 16.0000 0.0000
v 215.0000 17.0000 0.0000
vt 0.0000 0.0000
vt 0.0000 0.0000
vt 0.0000 0.0000
vn 0.0830 0.9965 0.0000
vn 0.0830 0.9965 0.0000
vn 0.0830 0.9965 0.0000
f 67/67/67 68/68/68 69/69/69
v 197.0000 16.0000 0.0000
v 197.0000 16.0000 10.0000
v 215.0000 17.0000 10.0000
vt 0.0000 0.0000
vt 0.0000 0.0000
vt 0.0000 0.0000
vn -0.0555 0.9985 0.0000
vn -0.0555 0.9985 0.0000
vn -0.0555 0.9985 0.0000
f 70/70/70 71/71/71 72/72/72
v 215.0000 17.0000 10.0000
v 215.0000 17.0000 0.0000
v 197.0000 16.0000 0.0000
vt 0.0000 0.0000
vt 0.0000 0.0000
vt 0.0000 0.0000
vn -0.0555 0.9985 0.0000
vn -0.0555 0.9985 0.0000
vn -0.0555 0.9985 0.0000
f 73/73/73 74/74/74 75/75/75
v 180.0000 17.0000 0.0000
v 180.0000 17.0000 10.0000
v 197.0000 16.0000 10.0000
vt 0.0000 0.0000
vt 0.0000 0.0000
vt 0.0000 0.0000
vn 0.0587 0.9983 0.0000
vn 0.0587 0.9983 0.0000
vn 0.0587 0.9983 0.0000
f 76/76/76 77/77/77 78/78/78
v 197.0000 16.0000 10.0000
v 197.0000 16.0000 0.0000
v 180.0000 17.0000 0.0000
vt 0.0000 0.0000
vt 0.0000 0.0000
vt 0.0000 0.0000
vn 0.0587 0.9983 0.0000
vn 0.0587 0.9983 0.0000
vn 0.0587 0.9983 0.0000
f 79/79/79 80/80/80 81/81/81
v 166.0000 19.0000 0.0000
v 166.0000 19.0000 10.0000
v 180.0000 17.0000 10.0000
vt 0.0000 0.0000
vt 0.0000 0.0000
vt 0.0000 0.0000
vn 0.1414 0.9899 0.0000
vn 0.1414 0.9899 0.0000
vn 0.1414 0.9899 0.0000
f 82/82/82 83/83/83 84/84/84
v 180.0000 17.0000 10.0000
v 180.0000 17.0000 0.0000
v 166.0000 19.0000 0.0000
vt 0.0000 0.0000
vt 0.0000 0.0000
vt 0.0000 0.0000
vn 0.1414 0.9899 0.0000
vn 0.1414 0.9899 0.0000
vn 0.1414 0.9899 0.0000
f 85/85/85 86/86/86 87/87/87
v 166.0000 13.0000 0.0000
v 166.0000 13.0000 10.0000
v 166.0000 19.0000 10.0000
vt 0.0000 0.0000
vt 0.0000 0.0000
vt 0.0000 0.0000
vn -1.0000 0.0000 0.0000
vn -1.0000 0.0000 0.0000
vn -1.0000 0.0000 0.0000
f 88/88/88 89/89/89 90/90/90
v 166.0000 19.0000 10.0000
v 166.0000 19.0000 0.0000
v 166.0000 13.0000 0.0000
vt 0.0000 0.0000
vt 0.0000 0.0000
vt 0.0000 0.0000
vn -1.0000 0.0000 0.0000
vn -1.0000 0.0000 0.0000
vn -1.0000 0.0000 0.0000
f 91/91/91 92/92/92 93/93/93
v 167.0000 6.0000 0.0000
v 167.0000 6.0000 10.0000
v 166.0000 13.0000 10.0000
vt 0.0000 0.0000
vt 0.0000 0.0000
vt 0.0000 0.0000
vn -0.9899 -0.1414 0.0000
vn -0.9899 -0.1414 0.0000
vn -0.9899 -0.1414 0.0000
f 94/94/94 95/95/95 96/96/96
v 166.0000 13.0000 10.0000
v 166.0000 13.0000 0.0000
v 167.0000 6.0000 0.0000
vt 0.0000 0.0000
vt 0.0000 0.0000
vt 0.0000 0.0000
vn -0.9899 -0.1414 0.0000
vn -0.9899 -0.1414 0.0000
vn -0.9899 -0.1414 0.0000
f 97/97/97 98/98/98 99/99/99
v 163.0000 1.0000 0.0000
v 163.0000 1.0000 10.0000
v 167.0000 6.0000 10.0000
vt 0.0000 0.0000
vt 0.0000 0.0000
vt 0.0000 0.0000
vn -0.7809 0.6247 0.0000
vn -0.7809 0.6247 0.0000
vn -0.7809 0.6247 0.0000
f 100/100/100 101/101/101 102/102/102
v 167.0000 6.0000 10.0000
v 167.0000 6.0000 0.0000
v 163.0000 1.0000 0.0000
vt 0.0000 0.0000
vt 0.0000 0.0000
vt 0.0000 0.0000
vn -0.7809 0.6247 0.0000
vn -0.7809 0.6247 0.0000
vn -0.7809 0.6247 0.0000
f 103/103/103 104/104/104 105/105/105
v 172.0000 -10.0000 0.0000
v 172.0000 -10.0000 10.0000
v 163.0000 1.0000 10.0000
vt 0.0000 0.0000
vt 0.0000 0.0000
vt 0.0000 0.0000
vn -0.7740 -0.6332 0.0000
vn -0.7740 -0.6332 0.0000
vn -0.7740 -0.6332 0.0000
f 106/106/106 107/107/107 108/108/108
v 163.0000 1.0000 10.0000
v 163.0000 1.0000 0.0000
v 172.0000 -10.0000 0.0000
vt 0.0000 0.0000
vt 0.0000 0.0000
vt 0.0000 0.0000
vn -0.7740 -0.6332 0.0000
vn -0.7740 -0.6332 0.0000
vn -0.7740 -0.6332 0.0000
f 109/109/109 110/110/110 111/111/111
v 179.0000 -16.0000 0.0000
v 179.0000 -16.0000 10.0000
v 172.0000 -10.0000 10.0000
vt 0.0000 0.0000
vt 0.0000 0.0000
vt 0.0000 0.0000
vn -0.6508 -0.7593 0.0000
vn -0.6508 -0.7593 0.0000
vn -0.6508 -0.7593 0.0000
f 112/112/112 113/113/113 114/114/114
v 172.0000 -10.0000 10.0000
v 172.0000 -10.0000 0.0000
v 179.0000 -16.0000 0.0000
vt 0.0000 0.0000
vt 0.0000 0.0000
vt 0.0000 0.0000
vn -0.6508 -0.7593 0.0000
vn -0.6508 -0.7593 0.0000
vn -0.6508 -0.7593 0.0000
f 115/115/115 116/116/116 117/117/117
v 191.0000 -19.0000 0.0000
v 191.0000 -19.0000 10.0000
v 179.0000 -16.0000 10.0000
vt 0.0000 0.0000
vt 0.0000 0.0000
vt 0.0000 0.0000
vn -0.2425 -0.9701 0.0000
vn -0.2425 -0.9701 0.0000
vn -0.2425 -0.9701 0.0000
f 118/118/118 119/119/119 120/120/120
v 179.0000 -16.0000 10.0000
v 179.0000 -16.0000 0.0000
v 191.0000 -19.0000 0.0000
vt 0.0000 0.0000
vt 0.0000 0.0000
vt 0.0000 0.0000
vn -0.2425 -0.9701 0.0000
vn -0.2425 -0.9701 0.0000
vn -0.2425 -0.9701 0.0000
f 121/121/121 122/122/122 123/123/123
v 205.0000 -21.0000 0.0000
v 205.0000 -21.0000 10.0000
v 191.0000 -19.0000 10.0000
vt 0.0000 0.0000
vt 0.0000 0.0000
vt 0.0000 0.0000
vn -0.1414 -0.9899 0.0000
vn -0.1414 -0.9899 0.0000
vn -0.1414 -0.9899 0.0000
f 124/124/124 125/125/125 126/126/126
v 191.0000 -19.0000 10.0000
v 191.0000 -19.0000 0.0000
v 205.0000 -21.0000 0.0000
vt 0.0000 0.0000
vt 0.0000 0.0000
vt 0.0000 0.0000
vn -0.1414 -0.9899 0.0000
vn -0.1414 -0.9899 0.0000
vn -0.1414 -0.9899 0.0000
f 127/127/127 128/128/128 129/129/129
v 208.0000 -23.0000 0.0000
v 208.0000 -23.0000 10.0000
v 205.0000 -21.0000 10.0000
vt 0.0000 0.0000
vt 0.0000 0.0000
vt 0.0000 0.0000
vn -0.5547 -0.8321 0.0000
vn -0.5547 -0.8321 0.0000
vn -0.5547 -0.8321 0.0000
f 130/130/130 131/131/131 132/132/132
v 205.0000 -21.0000 10.0000
v 205.0000 -21.0000 0.0000
v 208.0000 -23.0000 0.0000
vt 0.0000 0.0000
vt 0.0000 0.0000
vt 0.0000 0.0000
vn -0.5547 -0.8321 0.0000
vn -0.5547 -0.8321 0.0000
vn -0.5547 -0.8321 0.0000
f 133/133/133 134/134/134 135/135/135
v 222.0000 -32.0000 0.0000
v 222.0000 -32.0000 10.0000
v 215.0000 -32.0000 10.0000
vt 0.0000 0.0000
vt 0.0000 0.0000
vt 0.0000 0.0000
vn 0.0000 -1.0000 0.0000
vn 0.0000 -1.0000 0.0000
vn 0.0000 -1.0000 0.0000
f 136/136/136 137/137/137 138/138/138
v 215.0000 -32.0000 10.0000
v 215.0000 -32.0000 0.0000
v 222.0000 -32.0000 0.0000
vt 0.0000 0.0000
vt 0.0000 0.0000
vt 0.0000 0.0000
vn 0.0000 -1.0000 0.0000
vn 0.0000 -1.0000 0.0000
vn 0.0000 -1.0000 0.0000
f 139/139/139 140/140/140 141/141/141
v 229.0000 -7.0000 0.0000
v 229.0000 -7.0000 10.0000
v 222.0000 -32.0000 10.0000
vt 0.0000 0.0000
vt 0.0000 0.0000
vt 0.0000 0.0000
vn 0.9630 -0.2696 0.0000
vn 0.9630 -0.2696 0.0000
vn 0.9630 -0.2696 0.0000
f 142/142/142 143/143/143 144/144/144
v 222.0000 -32.0000 10.0000
v 222.0000 -32.0000 0.0000
v 229.0000 -7.0000 0.0000
vt 0.0000 0.0000
vt 0.0000 0.0000
vt 0.0000 0.0000
vn 0.9630 -0.2696 0.0000
vn 0.9630 -0.2696 0.0000
vn 0.9630 -0.2696 0.0000
f 145/145/145 146/146/146 147/147/147
v 230.0000 0.0000 0.0000
v 230.0000 0.0000 10.0000
v 229.0000 -7.0000 10.0000
vt 0.0000 0.0000
vt 0.0000 0.0000
vt 0.0000 0.0000
vn 0.9899 -0.1414 0.0000
vn 0.9899 -0.1414 0.0000
vn 0.9899 -0.1414 0.0000
f 148/148/148 149/149/149 150/150/150
v 229.0000 -7.0000 10.0000
v 229.0000 -7.0000 0.0000
v 230.0000 0.0000 0.0000
vt 0.0000 0.0000
vt 0.0000 0.0000
vt 0.0000 0.0000
vn 0.9899 -0.1414 0.0000
vn 0.9899 -0.1414 0.0000
vn 0.9899 -0.1414 0.0000
f 151/151/151 152/152/152 153/153/153
v 229.0000 3.0000 0.0000
v 229.0000 3.0000 10.0000
v 230.0000 0.0000 10.0000
vt 0.0000 0.0000
vt 0.0000 0.0000
vt 0.0000 0.0000
vn 0.9487 0.3162 0.0000
vn 0.9487 0.3162 0.0000
vn 0.9487 0.3162 0.0000
f 154/154/154 155/155/155 156/156/156
v 230.0000 0.0000 10.0000
v 230.0000 0.0000 0.0000
v 229.0000 3.0000 0.0000
vt 0.0000 0.0000
vt 0.0000 0.0000
vt 0.0000 0.0000
vn 0.9487 0.3162 0.0000
vn 0.9487 0.3162 0.0000
vn 0.9487 0.3162 0.0000
f 157/157/157 158/158/158 159/159/159
v 226.0000 5.0000 0.0000
v 226.0000 5.0000 10.0000
v 229.0000 3.0000 10.0000
vt 0.0000 0.0000
vt 0.0000 0.0000
vt 0.0000 0.0000
vn 0.5547 0.8321 0.0000
vn 0.5547 0.8321 0.0000
vn 0.5547 0.8321 0.0000
f 160/160/160 161/161/161 162/162/162
v 229.0000 3.0000 10.0000
v 229.0000 3.0000 0.0000
v 226.0000 5.0000 0.0000
vt 0.0000 0.0000
vt 0.0000 0.0000
vt 0.0000 0.0000
vn 0.5547 0.8321 0.0000
vn 0.5547 0.8321 0.0000
vn 0.5547 0.8321 0.0000
f 163/163/163 164/164/164 165/165/165
v 225.0000 11.0000 0.0000
v 225.0000 11.0000 10.0000
v 226.0000 5.0000 10.0000
vt 0.0000 0.0000
vt 0.0000 0.0000
vt 0.0000 0.0000
vn 0.9864 0.1644 0.0000
vn 0.9864 0.1644 0.0000
vn 0.9864 0.1644 0.0000
f 166/166/166 167/167/167 168/168/168
v 226.0000 5.0000 10.0000
v 226.0000 5.0000 0.0000
v 225.0000 11.0000 0.0000
vt 0.0000 0.0000
vt 0.0000 0.0000
vt 0.0000 0.0000
vn 0.9864 0.1644 0.0000
vn 0.9864 0.1644 0.0000
vn 0.9864 0.1644 0.0000
f 169/169/169 170/170/170 171/171/171
v 227.0000 16.0000 0.0000
v 227.0000 16.0000 10.0000
v 225.0000 11.0000 10.0000
vt 0.0000 0.0000
vt 0.0000 0.0000
vt 0.0000 0.0000
vn 0.9285 -0.3714 0.0000
vn 0.9285 -0.3714 0.0000
vn 0.9285 -0.3714 0.0000
f 172/172/172 173/173/173 174/174/174
v 225.0000 11.0000 10.0000
v 225.0000 11.0000 0.0000
v 227.0000 16.0000 0.0000
vt 0.0000 0.0000
vt 0.0000 0.0000
vt 0.0000 0.0000
vn 0.9285 -0.3714 0.0000
vn 0.9285 -0.3714 0.0000
vn 0.9285 -0.3714 0.0000
f 175/175/175 176/176/176 177/177/177
v 210.0000 -32.0000 0.0000
v 210.0000 -32.0000 10.0000
v 208.0000 -23.0000 10.0000
vt 0.0000 0.0000
vt 0.0000 0.0000
vt 0.0000 0.0000
vn -0.9762 -0.2169 0.0000
vn -0.9762 -0.2169 0.0000
vn -0.9762 -0.2169 0.0000
f 178/178/178 179/179/179 180/180/180
v 208.0000 -23.0000 10.0000
v 208.0000 -23.0000 0.0000
v 210.0000 -32.0000 0.0000
vt 0.0000 0.0000
vt 0.0000 0.0000
vt 0.0000 0.0000
vn -0.9762 -0.2169 0.0000
vn -0.9762 -0.2169 0.0000
vn -0.9762 -0.2169 0.0000
f 181/181/181 182/182/182 183/183/183
v 215.0000 -32.0000 0.0000
v 215.0000 -32.0000 10.0000
v 210.0000 -32.0000 10.0000
vt 0.0000 0.0000
vt 0.0000 0.0000
vt 0.0000 0.0000
vn 0.0000 -1.0000 0.0000
vn 0.0000 -1.0000 0.0000
vn 0.0000 -1.0000 0.0000
f 184/184/184 185/185/185 186/186/186
v 210.0000 -32.0000 10.0000
v 210.0000 -32.0000 0.0000
v 215.0000 -32.0000 0.0000
vt 0.0000 0.0000
vt 0.0000 0.0000
vt 0.0000 0.0000
vn 0.0000 -1.0000 0.0000
vn 0.0000 -1.0000 0.0000
vn 0.0000 -1.0000 0.0000
f 187/187/187 188/188/188 189/189/189
