v 130.0000 111.0000 0.0000
v 112.0000 103.0000 0.0000
v 112.0000 99.0000 0.0000
vt 0.0000 0.0000
vt 0.0000 0.0000
vt 0.0000 0.0000
vn 0.0000 0.0000 1.0000
vn 0.0000 0.0000 1.0000
vn 0.0000 0.0000 1.0000
f 1/1/1 2/2/2 3/3/3
v 130.0000 111.0000 0.0000
v 112.0000 99.0000 0.0000
v 119.0000 99.0000 0.0000
vt 0.0000 0.0000
vt 0.0000 0.0000
vt 0.0000 0.0000
vn 0.0000 0.0000 1.0000
vn 0.0000 0.0000 1.0000
vn 0.0000 0.0000 1.0000
f 4/4/4 5/5/5 6/6/6
v 130.0000 111.0000 0.0000
v 119.0000 99.0000 0.0000
v 128.0000 92.0000 0.0000
vt 0.0000 0.0000
vt 0.0000 0.0000
vt 0.0000 0.0000
vn 0.0000 0.0000 1.0000
vn 0.0000 0.0000 1.0000
vn 0.0000 0.0000 1.0000
f 7/7/7 8/8/8 9/9/9
v 130.0000 111.0000 0.0000
v 128.0000 92.0000 0.0000
v 132.0000 84.0000 0.0000
vt 0.0000 0.0000
vt 0.0000 0.0000
vt 0.0000 0.0000
vn 0.0000 0.0000 1.0000
vn 0.0000 0.0000 1.0000
vn 0.0000 0.0000 1.0000
f 10/10/10 11/11/11 12/12/12
v 130.0000 111.0000 0.0000
v 132.0000 84.0000 0.0000
v 148.0000 89.0000 0.0000
vt 0.0000 0.0000
vt 0.0000 0.0000
vt 0.0000 0.0000
vn 0.0000 0.0000 1.0000
vn 0.0000 0.0000 1.0000
vn 0.0000 0.0000 1.0000
f 13/13/13 14/14/14 15/15/15
v 130.0000 111.0000 0.0000
v 148.0000 89.0000 0.0000
v 145.0000 95.0000 0.0000
vt 0.0000 0.0000
vt 0.0000 0.0000
vt 0.0000 0.0000
vn 0.0000 0.0000 1.0000
vn 0.0000 0.0000 1.0000
vn 0.0000 0.0000 1.0000
f 16/16/16 17/17/17 18/18/18
v 130.0000 111.0000 0.0000
v 145.0000 95.0000 0.0000
v 146.0000 99.0000 0.0000
vt 0.0000 0.0000
vt 0.0000 0.0000
vt 0.0000 0.0000
vn 0.0000 0.0000 1.0000
vn 0.0000 0.0000 1.0000
vn 0.0000 0.0000 1.0000
f 19/19/19 20/20/20 21/21/21
v 130.0000 111.0000 0.0000
v 146.0000 99.0000 0.0000
v 140.0000 106.0000 0.0000
vt 0.0000 0.0000
vt 0.0000 0.0000
vt 0.0000 0.0000
vn 0.0000 0.0000 1.0000
vn 0.0000 0.0000 1.0000
vn 0.0000 0.0000 1.0000
f 22/22/22 23/23/23 24/24/24
v 130.0000 111.0000 0.0000
v 140.0000 106.0000 0.0000
v 137.0000 124.0000 0.0000
vt 0.0000 0.0000
vt 0.0000 0.0000
vt 0.0000 0.0000
vn 0.0000 0.0000 1.0000
vn 0.0000 0.0000 1.0000
vn 0.0000 0.0000 1.0000
f 25/25/25 26/26/26 27/27/27
v 130.0000 111.0000 0.0000
v 137.0000 124.0000 0.0000
v 130.0000 137.0000 0.0000
vt 0.0000 0.0000
vt 0.0000 0.0000
vt 0.0000 0.0000
vn 0.0000 0.0000 1.0000
vn 0.0000 0.0000 1.0000
vn 0.0000 0.0000 1.0000
f 28/28/28 29/29/29 30/30/30
v 130.0000 111.0000 0.0000
v 130.0000 137.0000 0.0000
v 123.0000 135.0000 0.0000
vt 0.0000 0.0000
vt 0.0000 0.0000
vt 0.0000 0.0000
vn 0.0000 0.0000 1.0000
vn 0.0000 0.0000 1.0000
vn 0.0000 0.0000 1.0000
f 31/31/31 32/32/32 33/33/33
v 130.0000 111.0000 0.0000
v 123.0000 135.0000 0.0000
v 116.0000 124.0000 0.0000
vt 0.0000 0.0000
vt 0.0000 0.0000
vt 0.0000 0.0000
vn 0.0000 0.0000 1.0000
vn 0.0000 0.0000 1.0000
vn 0.0000 0.0000 1.0000
f 34/34/34 35/35/35 36/36/36
v 130.0000 111.0000 0.0000
v 116.0000 124.0000 0.0000
v 116.0000 115.0000 0.0000
vt 0.0000 0.0000
vt 0.0000 0.0000
vt 0.0000 0.0000
vn 0.0000 0.0000 1.0000
vn 0.0000 0.0000 1.0000
vn 0.0000 0.0000 1.0000
f 37/37/37 38/38/38 39/39/39
v 130.0000 111.0000 0.0000
v 116.0000 115.0000 0.0000
v 115.0000 108.0000 0.0000
vt 0.0000 0.0000
vt 0.0000 0.0000
vt 0.0000 0.0000
vn 0.0000 0.0000 1.0000
vn 0.0000 0.0000 1.0000
vn 0.0000 0.0000 1.0000
f 40/40/40 41/41/41 42/42/42
v 130.0000 111.0000 0.0000
v 115.0000 108.0000 0.0000
v 112.0000 103.0000 0.0000
vt 0.0000 0.0000
vt 0.0000 0.0000
vt 0.0000 0.0000
vn 0.0000 0.0000 1.0000
vn 0.0000 0.0000 1.0000
vn 0.0000 0.0000 1.0000
f 43/43/43 44/44/44 45/45/45
v 141.0000 150.0000 0.0000
v 145.0000 160.0000 0.0000
v 141.0000 163.0000 0.0000
vt 0.0000 0.0000
vt 0.0000 0.0000
vt 0.0000 0.0000
vn 0.0000 0.0000 1.0000
vn 0.0000 0.0000 1.0000
vn 0.0000 0.0000 1.0000
f 46/46/46 47/47/47 48/48/48
v 141.0000 150.0000 0.0000
v 141.0000 163.0000 0.0000
v 136.0000 160.0000 0.0000
vt 0.0000 0.0000
vt 0.0000 0.0000
vt 0.0000 0.0000
vn 0.0000 0.0000 1.0000
vn 0.0000 0.0000 1.0000
vn 0.0000 0.0000 1.0000
f 49/49/49 50/50/50 51/51/51
v 141.0000 150.0000 0.0000
v 136.0000 160.0000 0.0000
v 130.0000 156.0000 0.0000
vt 0.0000 0.0000
vt 0.0000 0.0000
vt 0.0000 0.0000
vn 0.0000 0.0000 1.0000
vn 0.0000 0.0000 1.0000
vn 0.0000 0.0000 1.0000
f 52/52/52 53/53/53 54/54/54
v 141.0000 150.0000 0.0000
v 130.0000 156.0000 0.0000
v 127.0000 151.0000 0.0000
vt 0.0000 0.0000
vt 0.0000 0.0000
vt 0.0000 0.0000
vn 0.0000 0.0000 1.0000
vn 0.0000 0.0000 1.0000
vn 0.0000 0.0000 1.0000
f 55/55/55 56/56/56 57/57/57
v 141.0000 150.0000 0.0000
v 127.0000 151.0000 0.0000
v 121.0000 146.0000 0.0000
vt 0.0000 0.0000
vt 0.0000 0.0000
vt 0.0000 0.0000
vn 0.0000 0.0000 1.0000
vn 0.0000 0.0000 1.0000
vn 0.0000 0.0000 1.0000
f 58/58/58 59/59/59 60/60/60
v 141.0000 150.0000 0.0000
v 121.0000 146.0000 0.0000
v 123.0000 135.0000 0.0000
vt 0.0000 0.0000
vt 0.0000 0.0000
vt 0.0000 0.0000
vn 0.0000 0.0000 1.0000
vn 0.0000 0.0000 1.0000
vn 0.0000 0.0000 1.0000
f 61/61/61 62/62/62 63/63/63
v 141.0000 150.0000 0.0000
v 123.0000 135.0000 0.0000
v 130.0000 137.0000 0.0000
vt 0.0000 0.0000
vt 0.0000 0.0000
vt 0.0000 0.0000
vn 0.0000 0.0000 1.0000
vn 0.0000 0.0000 1.0000
vn 0.0000 0.0000 1.0000
f 64/64/64 65/65/65 66/66/66
v 141.0000 150.0000 0.0000
v 130.0000 137.0000 0.0000
v 135.0000 135.0000 0.0000
vt 0.0000 0.0000
vt 0.0000 0.0000
vt 0.0000 0.0000
vn 0.0000 0.0000 1.0000
vn 0.0000 0.0000 1.0000
vn 0.0000 0.0000 1.0000
f 67/67/67 68/68/68 69/69/69
v 141.0000 150.0000 0.0000
v 135.0000 135.0000 0.0000
v 141.0000 141.0000 0.0000
vt 0.0000 0.0000
vt 0.0000 0.0000
vt 0.0000 0.0000
vn 0.0000 0.0000 1.0000
vn 0.0000 0.0000 1.0000
vn 0.0000 0.0000 1.0000
f 70/70/70 71/71/71 72/72/72
v 141.0000 150.0000 0.0000
v 141.0000 141.0000 0.0000
v 146.0000 139.0000 0.0000
vt 0.0000 0.0000
vt 0.0000 0.0000
vt 0.0000 0.0000
vn 0.0000 0.0000 1.0000
vn 0.0000 0.0000 1.0000
vn 0.0000 0.0000 1.0000
f 73/73/73 74/74/74 75/75/75
v 141.0000 150.0000 0.0000
v 146.0000 139.0000 0.0000
v 151.0000 145.0000 0.0000
vt 0.0000 0.0000
vt 0.0000 0.0000
vt 0.0000 0.0000
vn 0.0000 0.0000 1.0000
vn 0.0000 0.0000 1.0000
vn 0.0000 0.0000 1.0000
f 76/76/76 77/77/77 78/78/78
v 141.0000 150.0000 0.0000
v 151.0000 145.0000 0.0000
v 159.0000 153.0000 0.0000
vt 0.0000 0.0000
vt 0.0000 0.0000
vt 0.0000 0.0000
vn 0.0000 0.0000 1.0000
vn 0.0000 0.0000 1.0000
vn 0.0000 0.0000 1.0000
f 79/79/79 80/80/80 81/81/81
v 141.0000 150.0000 0.0000
v 159.0000 153.0000 0.0000
v 159.0000 160.0000 0.0000
vt 0.0000 0.0000
vt 0.0000 0.0000
vt 0.0000 0.0000
vn 0.0000 0.0000 1.0000
vn 0.0000 0.0000 1.0000
vn 0.0000 0.0000 1.0000
f 82/82/82 83/83/83 84/84/84
v 141.0000 150.0000 0.0000
v 159.0000 160.0000 0.0000
v 145.0000 160.0000 0.0000
vt 0.0000 0.0000
vt 0.0000 0.0000
vt 0.0000 0.0000
vn 0.0000 0.0000 1.0000
vn 0.0000 0.0000 1.0000
vn 0.0000 0.0000 1.0000
f 85/85/85 86/86/86 87/87/87
v 137.0000 124.0000 0.0000
v 135.0000 135.0000 0.0000
v 130.0000 137.0000 0.0000
vt 0.0000 0.0000
vt 0.0000 0.0000
vt 0.0000 0.0000
vn 0.0000 0.0000 1.0000
vn 0.0000 0.0000 1.0000
vn 0.0000 0.0000 1.0000
f 88/88/88 89/89/89 90/90/90
v 173.0000 173.0000 0.0000
v 159.0000 160.0000 0.0000
v 159.0000 153.0000 0.0000
vt 0.0000 0.0000
vt 0.0000 0.0000
vt 0.0000 0.0000
vn 0.0000 0.0000 1.0000
vn 0.0000 0.0000 1.0000
vn 0.0000 0.0000 1.0000
f 91/91/91 92/92/92 93/93/93
v 173.0000 173.0000 0.0000
v 159.0000 153.0000 0.0000
v 172.0000 157.0000 0.0000
vt 0.0000 0.0000
vt 0.0000 0.0000
vt 0.0000 0.0000
vn 0.0000 0.0000 1.0000
vn 0.0000 0.0000 1.0000
vn 0.0000 0.0000 1.0000
f 94/94/94 95/95/95 96/96/96
v 173.0000 173.0000 0.0000
v 172.0000 157.0000 0.0000
v 193.0000 164.0000 0.0000
vt 0.0000 0.0000
vt 0.0000 0.0000
vt 0.0000 0.0000
vn 0.0000 0.0000 1.0000
vn 0.0000 0.0000 1.0000
vn 0.0000 0.0000 1.0000
f 97/97/97 98/98/98 99/99/99
v 173.0000 173.0000 0.0000
v 193.0000 164.0000 0.0000
v 185.0000 173.0000 0.0000
vt 0.0000 0.0000
vt 0.0000 0.0000
vt 0.0000 0.0000
vn 0.0000 0.0000 1.0000
vn 0.0000 0.0000 1.0000
vn 0.0000 0.0000 1.0000
f 100/100/100 101/101/101 102/102/102
v 173.0000 173.0000 0.0000
v 185.0000 173.0000 0.0000
v 181.0000 180.0000 0.0000
vt 0.0000 0.0000
vt 0.0000 0.0000
vt 0.0000 0.0000
vn 0.0000 0.0000 1.0000
vn 0.0000 0.0000 1.0000
vn 0.0000 0.0000 1.0000
f 103/103/103 104/104/104 105/105/105
v 173.0000 173.0000 0.0000
v 181.0000 180.0000 0.0000
v 178.0000 190.0000 0.0000
vt 0.0000 0.0000
vt 0.0000 0.0000
vt 0.0000 0.0000
vn 0.0000 0.0000 1.0000
vn 0.0000 0.0000 1.0000
vn 0.0000 0.0000 1.0000
f 106/106/106 107/107/107 108/108/108
v 173.0000 173.0000 0.0000
v 178.0000 190.0000 0.0000
v 170.0000 184.0000 0.0000
vt 0.0000 0.0000
vt 0.0000 0.0000
vt 0.0000 0.0000
vn 0.0000 0.0000 1.0000
vn 0.0000 0.0000 1.0000
vn 0.0000 0.0000 1.0000
f 109/109/109 110/110/110 111/111/111
v 173.0000 173.0000 0.0000
v 170.0000 184.0000 0.0000
v 168.0000 179.0000 0.0000
vt 0.0000 0.0000
vt 0.0000 0.0000
vt 0.0000 0.0000
vn 0.0000 0.0000 1.0000
vn 0.0000 0.0000 1.0000
vn 0.0000 0.0000 1.0000
f 112/112/112 113/113/113 114/114/114
v 173.0000 173.0000 0.0000
v 168.0000 179.0000 0.0000
v 158.0000 172.0000 0.0000
vt 0.0000 0.0000
vt 0.0000 0.0000
vt 0.0000 0.0000
vn 0.0000 0.0000 1.0000
vn 0.0000 0.0000 1.0000
vn 0.0000 0.0000 1.0000
f 115/115/115 116/116/116 117/117/117
v 173.0000 173.0000 0.0000
v 158.0000 172.0000 0.0000
v 155.0000 165.0000 0.0000
vt 0.0000 0.0000
vt 0.0000 0.0000
vt 0.0000 0.0000
vn 0.0000 0.0000 1.0000
vn 0.0000 0.0000 1.0000
vn 0.0000 0.0000 1.0000
f 118/118/118 119/119/119 120/120/120
v 173.0000 173.0000 0.0000
v 155.0000 165.0000 0.0000
v 159.0000 160.0000 0.0000
vt 0.0000 0.0000
vt 0.0000 0.0000
vt 0.0000 0.0000
vn 0.0000 0.0000 1.0000
vn 0.0000 0.0000 1.0000
vn 0.0000 0.0000 1.0000
f 121/121/121 122/122/122 123/123/123
v 181.0000 180.0000 0.0000
v 187.0000 182.0000 0.0000
v 178.0000 190.0000 0.0000
vt 0.0000 0.0000
vt 0.0000 0.0000
vt 0.0000 0.0000
vn 0.0000 0.0000 1.0000
vn 0.0000 0.0000 1.0000
vn 0.0000 0.0000 1.0000
f 124/124/124 125/125/125 126/126/126
